{
  "index": "/index.html",
  "assetGroups": [
    {
      "name": "app",
      "installMode": "prefetch",
      "resources": {
        "files": [
          "/favicon.ico",
          "/index.html",
          "/*.css",
          "/*.js"
        ]
      }
    }, {
      "name": "assets",
      "installMode": "lazy",
      "updateMode": "prefetch",
      "resources": {
        "files": [
          "/assets/**",
          "/*.(eot|svg|cur|jpg|png|webp|gif|otf|ttf|woff|woff2|ani)"
        ]
      }
    }
  ],
  "dataGroups": [
    {
      "name": "productos",
      "urls": [
        "http://localhost:8080/advanced-generic-quote/v1.0.0/lines",
        "http://localhost:8080/advanced-generic-quote/v1.0.0/products?line=6"
      ],
      "cacheConfig": {
        "maxSize": 100000,
        "maxAge": "30d",
        "strategy": "performance"
      }
    }
  ]
}
